\babel@toc {english}{}
\beamer@sectionintoc {1}{Introduction}{3}{0}{1}
\beamer@sectionintoc {2}{Methodology}{19}{0}{2}
\beamer@sectionintoc {3}{Result and Discussion}{43}{0}{3}
\beamer@sectionintoc {4}{Conclusion and Recommendation}{59}{0}{4}
