\relax 
\providecommand\hyper@newdestlabel[2]{}
\providecommand\HyperFirstAtBeginDocument{\AtBeginDocument}
\HyperFirstAtBeginDocument{\ifx\hyper@anchor\@undefined
\global\let\oldcontentsline\contentsline
\gdef\contentsline#1#2#3#4{\oldcontentsline{#1}{#2}{#3}}
\global\let\oldnewlabel\newlabel
\gdef\newlabel#1#2{\newlabelxx{#1}#2}
\gdef\newlabelxx#1#2#3#4#5#6{\oldnewlabel{#1}{{#2}{#3}}}
\AtEndDocument{\ifx\hyper@anchor\@undefined
\let\contentsline\oldcontentsline
\let\newlabel\oldnewlabel
\fi}
\fi}
\global\let\hyper@last\relax 
\gdef\HyperFirstAtBeginDocument#1{#1}
\providecommand*\HyPL@Entry[1]{}
\@nameuse{bbl@beforestart}
\HyPL@Entry{0<</P(0)>>}
\babel@aux{english}{}
\@writefile{nav}{\headcommand {\slideentry {0}{0}{1}{1/1}{}{0}}}
\@writefile{nav}{\headcommand {\beamer@framepages {1}{1}}}
\HyPL@Entry{1<</P(1)>>}
\@writefile{nav}{\headcommand {\slideentry {0}{0}{2}{2/2}{}{0}}}
\@writefile{nav}{\headcommand {\beamer@framepages {2}{2}}}
\@writefile{toc}{\beamer@sectionintoc {1}{Introduction}{3}{0}{1}}
\@writefile{nav}{\headcommand {\beamer@sectionpages {1}{2}}}
\@writefile{nav}{\headcommand {\beamer@subsectionpages {1}{2}}}
\@writefile{nav}{\headcommand {\sectionentry {1}{Introduction}{3}{Introduction}{0}}}
\@writefile{nav}{\headcommand {\slideentry {1}{0}{1}{3/3}{}{0}}}
\@writefile{nav}{\headcommand {\beamer@framepages {3}{3}}}
\HyPL@Entry{3<</P(2)>>}
\providecommand*\caption@xref[2]{\@setref\relax\@undefined{#1}}
\newlabel{fig:a}{{1}{4}{Length to Empty Weight Comparison\relax }{Doc-Start}{}}
\@writefile{snm}{\beamer@slide {fig:a}{4}}
\newlabel{fig:b}{{2}{4}{Length to Thrust Comparison\relax }{Doc-Start}{}}
\@writefile{snm}{\beamer@slide {fig:b}{4}}
\@writefile{nav}{\headcommand {\slideentry {1}{0}{2}{4/4}{}{0}}}
\@writefile{nav}{\headcommand {\beamer@framepages {4}{4}}}
\HyPL@Entry{4<</P(3)>>}
\newlabel{fig:c}{{3}{5}{Wingspan to Empty Weight Comparison\relax }{Doc-Start}{}}
\@writefile{snm}{\beamer@slide {fig:c}{5}}
\newlabel{fig:d}{{4}{5}{Wingspan to Thrust Comparison\relax }{Doc-Start}{}}
\@writefile{snm}{\beamer@slide {fig:d}{5}}
\@writefile{nav}{\headcommand {\slideentry {1}{0}{3}{5/5}{}{0}}}
\@writefile{nav}{\headcommand {\beamer@framepages {5}{5}}}
\HyPL@Entry{5<</P(4)>>}
\@writefile{nav}{\headcommand {\slideentry {1}{0}{4}{6/6}{}{0}}}
\@writefile{nav}{\headcommand {\beamer@framepages {6}{6}}}
\HyPL@Entry{6<</P(5)>>}
\@writefile{nav}{\headcommand {\slideentry {1}{0}{5}{7/7}{}{0}}}
\@writefile{nav}{\headcommand {\beamer@framepages {7}{7}}}
\HyPL@Entry{7<</P(6)>>}
\@writefile{nav}{\headcommand {\slideentry {1}{0}{6}{8/8}{}{0}}}
\@writefile{nav}{\headcommand {\beamer@framepages {8}{8}}}
\HyPL@Entry{8<</P(7)>>}
\@writefile{nav}{\headcommand {\slideentry {1}{0}{7}{9/9}{}{0}}}
\@writefile{nav}{\headcommand {\beamer@framepages {9}{9}}}
\HyPL@Entry{9<</P(8)>>}
\newlabel{Total_Weight_Details}{{1}{10}{Total Weight Details\relax }{Doc-Start}{}}
\@writefile{snm}{\beamer@slide {Total_Weight_Details}{10}}
\@writefile{nav}{\headcommand {\slideentry {1}{0}{8}{10/10}{}{0}}}
\@writefile{nav}{\headcommand {\beamer@framepages {10}{10}}}
\HyPL@Entry{10<</P(9)>>}
\newlabel{Airfoil_Characteristic}{{2}{11}{Airfoil Characterisitic\relax }{Doc-Start}{}}
\@writefile{snm}{\beamer@slide {Airfoil_Characteristic}{11}}
\@writefile{nav}{\headcommand {\slideentry {1}{0}{9}{11/11}{}{0}}}
\@writefile{nav}{\headcommand {\beamer@framepages {11}{11}}}
\HyPL@Entry{11<</P(10)>>}
\@writefile{nav}{\headcommand {\slideentry {1}{0}{10}{12/12}{}{0}}}
\@writefile{nav}{\headcommand {\beamer@framepages {12}{12}}}
\HyPL@Entry{12<</P(11)>>}
\@writefile{nav}{\headcommand {\slideentry {1}{0}{11}{13/13}{}{0}}}
\@writefile{nav}{\headcommand {\beamer@framepages {13}{13}}}
\HyPL@Entry{13<</P(12)>>}
\@writefile{nav}{\headcommand {\slideentry {1}{0}{12}{14/14}{}{0}}}
\@writefile{nav}{\headcommand {\beamer@framepages {14}{14}}}
\HyPL@Entry{14<</P(13)>>}
\@writefile{nav}{\headcommand {\slideentry {1}{0}{13}{15/15}{}{0}}}
\@writefile{nav}{\headcommand {\beamer@framepages {15}{15}}}
\HyPL@Entry{15<</P(14)>>}
\@writefile{nav}{\headcommand {\slideentry {1}{0}{14}{16/16}{}{0}}}
\@writefile{nav}{\headcommand {\beamer@framepages {16}{16}}}
\HyPL@Entry{16<</P(15)>>}
\@writefile{nav}{\headcommand {\slideentry {1}{0}{15}{17/17}{}{0}}}
\@writefile{nav}{\headcommand {\beamer@framepages {17}{17}}}
\HyPL@Entry{17<</P(16)>>}
\@writefile{nav}{\headcommand {\slideentry {1}{0}{16}{18/18}{}{0}}}
\@writefile{nav}{\headcommand {\beamer@framepages {18}{18}}}
\@writefile{toc}{\beamer@sectionintoc {2}{Methodology}{19}{0}{2}}
\@writefile{nav}{\headcommand {\beamer@sectionpages {3}{18}}}
\@writefile{nav}{\headcommand {\beamer@subsectionpages {3}{18}}}
\@writefile{nav}{\headcommand {\sectionentry {2}{Methodology}{19}{Methodology}{0}}}
\@writefile{nav}{\headcommand {\slideentry {2}{0}{1}{19/19}{}{0}}}
\@writefile{nav}{\headcommand {\beamer@framepages {19}{19}}}
\HyPL@Entry{19<</P(17)>>}
\newlabel{Major_Step}{{13}{20}{Major Step\relax }{Doc-Start}{}}
\@writefile{snm}{\beamer@slide {Major_Step}{20}}
\@writefile{nav}{\headcommand {\slideentry {2}{0}{2}{20/20}{}{0}}}
\@writefile{nav}{\headcommand {\beamer@framepages {20}{20}}}
\HyPL@Entry{20<</P(18)>>}
\@writefile{nav}{\headcommand {\slideentry {2}{0}{3}{21/21}{}{0}}}
\@writefile{nav}{\headcommand {\beamer@framepages {21}{21}}}
\HyPL@Entry{21<</P(19)>>}
\newlabel{mesh}{{15}{22}{Mesh topology of computational domain(2)\relax }{Doc-Start}{}}
\@writefile{snm}{\beamer@slide {mesh}{22}}
\@writefile{nav}{\headcommand {\slideentry {2}{0}{4}{22/22}{}{0}}}
\@writefile{nav}{\headcommand {\beamer@framepages {22}{22}}}
\HyPL@Entry{22<</P(20)>>}
\@writefile{nav}{\headcommand {\slideentry {2}{0}{5}{23/23}{}{0}}}
\@writefile{nav}{\headcommand {\beamer@framepages {23}{23}}}
\HyPL@Entry{23<</P(21)>>}
\@writefile{nav}{\headcommand {\slideentry {2}{0}{6}{24/24}{}{0}}}
\@writefile{nav}{\headcommand {\beamer@framepages {24}{24}}}
\HyPL@Entry{24<</P(22)>>}
\@writefile{nav}{\headcommand {\slideentry {2}{0}{7}{25/25}{}{0}}}
\@writefile{nav}{\headcommand {\beamer@framepages {25}{25}}}
\HyPL@Entry{25<</P(23)>>}
\newlabel{Airfield_phase}{{16}{26}{Airfield phase\relax }{Doc-Start}{}}
\@writefile{snm}{\beamer@slide {Airfield_phase}{26}}
\@writefile{nav}{\headcommand {\slideentry {2}{0}{8}{26/26}{}{0}}}
\@writefile{nav}{\headcommand {\beamer@framepages {26}{26}}}
\HyPL@Entry{26<</P(24)>>}
\@writefile{nav}{\headcommand {\slideentry {2}{0}{9}{27/27}{}{0}}}
\@writefile{nav}{\headcommand {\beamer@framepages {27}{27}}}
\HyPL@Entry{27<</P(25)>>}
\@writefile{nav}{\headcommand {\slideentry {2}{0}{10}{28/28}{}{0}}}
\@writefile{nav}{\headcommand {\beamer@framepages {28}{28}}}
\HyPL@Entry{28<</P(26)>>}
\@writefile{nav}{\headcommand {\slideentry {2}{0}{11}{29/29}{}{0}}}
\@writefile{nav}{\headcommand {\beamer@framepages {29}{29}}}
\HyPL@Entry{29<</P(27)>>}
\newlabel{Force_acting_on_UAV}{{17}{30}{Force acting on UAV\relax }{Doc-Start}{}}
\@writefile{snm}{\beamer@slide {Force_acting_on_UAV}{30}}
\@writefile{nav}{\headcommand {\slideentry {2}{0}{12}{30/30}{}{0}}}
\@writefile{nav}{\headcommand {\beamer@framepages {30}{30}}}
\HyPL@Entry{30<</P(28)>>}
\@writefile{nav}{\headcommand {\slideentry {2}{0}{13}{31/31}{}{0}}}
\@writefile{nav}{\headcommand {\beamer@framepages {31}{31}}}
\HyPL@Entry{31<</P(29)>>}
\@writefile{nav}{\headcommand {\slideentry {2}{0}{14}{32/32}{}{0}}}
\@writefile{nav}{\headcommand {\beamer@framepages {32}{32}}}
\HyPL@Entry{32<</P(30)>>}
\@writefile{nav}{\headcommand {\slideentry {2}{0}{15}{33/33}{}{0}}}
\@writefile{nav}{\headcommand {\beamer@framepages {33}{33}}}
\HyPL@Entry{33<</P(31)>>}
\@writefile{nav}{\headcommand {\slideentry {2}{0}{16}{34/34}{}{0}}}
\@writefile{nav}{\headcommand {\beamer@framepages {34}{34}}}
\HyPL@Entry{34<</P(32)>>}
\newlabel{Force_acting_on_UAV_during_landing}{{18}{35}{Force acting on UAV during landing\relax }{Doc-Start}{}}
\@writefile{snm}{\beamer@slide {Force_acting_on_UAV_during_landing}{35}}
\@writefile{nav}{\headcommand {\slideentry {2}{0}{17}{35/35}{}{0}}}
\@writefile{nav}{\headcommand {\beamer@framepages {35}{35}}}
\HyPL@Entry{35<</P(33)>>}
\@writefile{nav}{\headcommand {\slideentry {2}{0}{18}{36/36}{}{0}}}
\@writefile{nav}{\headcommand {\beamer@framepages {36}{36}}}
\HyPL@Entry{36<</P(34)>>}
\newlabel{ISA_Graph}{{19}{37}{ISA Model\relax }{Doc-Start}{}}
\@writefile{snm}{\beamer@slide {ISA_Graph}{37}}
\@writefile{nav}{\headcommand {\slideentry {2}{0}{19}{37/37}{}{0}}}
\@writefile{nav}{\headcommand {\beamer@framepages {37}{37}}}
\HyPL@Entry{37<</P(35)>>}
\@writefile{nav}{\headcommand {\slideentry {2}{0}{20}{38/38}{}{0}}}
\@writefile{nav}{\headcommand {\beamer@framepages {38}{38}}}
\HyPL@Entry{38<</P(36)>>}
\@writefile{nav}{\headcommand {\slideentry {2}{0}{21}{39/39}{}{0}}}
\@writefile{nav}{\headcommand {\beamer@framepages {39}{39}}}
\HyPL@Entry{39<</P(37)>>}
\@writefile{nav}{\headcommand {\slideentry {2}{0}{22}{40/40}{}{0}}}
\@writefile{nav}{\headcommand {\beamer@framepages {40}{40}}}
\HyPL@Entry{40<</P(38)>>}
\@writefile{nav}{\headcommand {\slideentry {2}{0}{23}{41/41}{}{0}}}
\@writefile{nav}{\headcommand {\beamer@framepages {41}{41}}}
\HyPL@Entry{41<</P(39)>>}
\@writefile{nav}{\headcommand {\slideentry {2}{0}{24}{42/42}{}{0}}}
\@writefile{nav}{\headcommand {\beamer@framepages {42}{42}}}
\@writefile{toc}{\beamer@sectionintoc {3}{Result and Discussion}{43}{0}{3}}
\@writefile{nav}{\headcommand {\beamer@sectionpages {19}{42}}}
\@writefile{nav}{\headcommand {\beamer@subsectionpages {19}{42}}}
\@writefile{nav}{\headcommand {\sectionentry {3}{Result and Discussion}{43}{Result and Discussion}{0}}}
\@writefile{nav}{\headcommand {\slideentry {3}{0}{1}{43/43}{}{0}}}
\@writefile{nav}{\headcommand {\beamer@framepages {43}{43}}}
\HyPL@Entry{43<</P(40)>>}
\newlabel{pressure}{{20}{44}{The pressure contour.\relax }{Doc-Start}{}}
\@writefile{snm}{\beamer@slide {pressure}{44}}
\@writefile{nav}{\headcommand {\slideentry {3}{0}{2}{44/44}{}{0}}}
\@writefile{nav}{\headcommand {\beamer@framepages {44}{44}}}
\HyPL@Entry{44<</P(41)>>}
\newlabel{mesh}{{22}{45}{Drag polar of aircraft\relax }{Doc-Start}{}}
\@writefile{snm}{\beamer@slide {mesh}{45}}
\@writefile{nav}{\headcommand {\slideentry {3}{0}{3}{45/45}{}{0}}}
\@writefile{nav}{\headcommand {\beamer@framepages {45}{45}}}
\HyPL@Entry{45<</P(42)>>}
\newlabel{Wing_Characteristic}{{6}{46}{Wing Characteristic\relax }{Doc-Start}{}}
\@writefile{snm}{\beamer@slide {Wing_Characteristic}{46}}
\@writefile{nav}{\headcommand {\slideentry {3}{0}{4}{46/46}{}{0}}}
\@writefile{nav}{\headcommand {\beamer@framepages {46}{46}}}
\HyPL@Entry{46<</P(43)>>}
\newlabel{Wing_Characteristic(2)}{{7}{47}{Wing Characteristic(2)\relax }{Doc-Start}{}}
\@writefile{snm}{\beamer@slide {Wing_Characteristic(2)}{47}}
\@writefile{nav}{\headcommand {\slideentry {3}{0}{5}{47/47}{}{0}}}
\@writefile{nav}{\headcommand {\beamer@framepages {47}{47}}}
\HyPL@Entry{47<</P(44)>>}
\newlabel{Performance_Variables}{{8}{48}{Performance Variables\relax }{Doc-Start}{}}
\@writefile{snm}{\beamer@slide {Performance_Variables}{48}}
\@writefile{nav}{\headcommand {\slideentry {3}{0}{6}{48/48}{}{0}}}
\@writefile{nav}{\headcommand {\beamer@framepages {48}{48}}}
\HyPL@Entry{48<</P(45)>>}
\newlabel{Performance_Variables}{{9}{49}{Performance Variables\relax }{Doc-Start}{}}
\@writefile{snm}{\beamer@slide {Performance_Variables}{49}}
\@writefile{nav}{\headcommand {\slideentry {3}{0}{7}{49/49}{}{0}}}
\@writefile{nav}{\headcommand {\beamer@framepages {49}{49}}}
\HyPL@Entry{49<</P(46)>>}
\newlabel{Take_Off_Performance}{{10}{50}{Take Off Performance\relax }{Doc-Start}{}}
\@writefile{snm}{\beamer@slide {Take_Off_Performance}{50}}
\@writefile{nav}{\headcommand {\slideentry {3}{0}{8}{50/50}{}{0}}}
\@writefile{nav}{\headcommand {\beamer@framepages {50}{50}}}
\HyPL@Entry{50<</P(47)>>}
\newlabel{Airborne_Performance}{{11}{51}{Airfborne Performance\relax }{Doc-Start}{}}
\@writefile{snm}{\beamer@slide {Airborne_Performance}{51}}
\@writefile{nav}{\headcommand {\slideentry {3}{0}{9}{51/51}{}{0}}}
\@writefile{nav}{\headcommand {\beamer@framepages {51}{51}}}
\HyPL@Entry{51<</P(48)>>}
\newlabel{Landing_distance_performance_due_to_Fuel_Remaining}{{23}{52}{Landing distance performance due to Fuel Remaining\relax }{Doc-Start}{}}
\@writefile{snm}{\beamer@slide {Landing_distance_performance_due_to_Fuel_Remaining}{52}}
\@writefile{nav}{\headcommand {\slideentry {3}{0}{10}{52/52}{}{0}}}
\@writefile{nav}{\headcommand {\beamer@framepages {52}{52}}}
\HyPL@Entry{52<</P(49)>>}
\newlabel{Gliding_Performance}{{12}{53}{Gliding Performance\relax }{Doc-Start}{}}
\@writefile{snm}{\beamer@slide {Gliding_Performance}{53}}
\@writefile{nav}{\headcommand {\slideentry {3}{0}{11}{53/53}{}{0}}}
\@writefile{nav}{\headcommand {\beamer@framepages {53}{53}}}
\HyPL@Entry{53<</P(50)>>}
\newlabel{Climbing_Performance_due_to_Altitude}{{13}{54}{Climbing Performance due to Altitude\relax }{Doc-Start}{}}
\@writefile{snm}{\beamer@slide {Climbing_Performance_due_to_Altitude}{54}}
\@writefile{nav}{\headcommand {\slideentry {3}{0}{12}{54/54}{}{0}}}
\@writefile{nav}{\headcommand {\beamer@framepages {54}{54}}}
\HyPL@Entry{54<</P(51)>>}
\newlabel{Climbing_Performance_due_to_Altitude_Continued}{{14}{55}{Climbing Performance due to Altitude Continued\relax }{Doc-Start}{}}
\@writefile{snm}{\beamer@slide {Climbing_Performance_due_to_Altitude_Continued}{55}}
\@writefile{nav}{\headcommand {\slideentry {3}{0}{13}{55/55}{}{0}}}
\@writefile{nav}{\headcommand {\beamer@framepages {55}{55}}}
\HyPL@Entry{55<</P(52)>>}
\newlabel{Climbing_Performance_with_Fuel_Reduction_due_to_Altitude}{{15}{56}{Climbing Performance with Fuel Reduction due to Altitude\relax }{Doc-Start}{}}
\@writefile{snm}{\beamer@slide {Climbing_Performance_with_Fuel_Reduction_due_to_Altitude}{56}}
\@writefile{nav}{\headcommand {\slideentry {3}{0}{14}{56/56}{}{0}}}
\@writefile{nav}{\headcommand {\beamer@framepages {56}{56}}}
\HyPL@Entry{56<</P(53)>>}
\newlabel{Climbing_Performance_with_Fuel_Reduction_due_to_Altitude_Continued}{{16}{57}{Climbing Performance with Fuel Reduction due to Altitude Continued\relax }{Doc-Start}{}}
\@writefile{snm}{\beamer@slide {Climbing_Performance_with_Fuel_Reduction_due_to_Altitude_Continued}{57}}
\@writefile{nav}{\headcommand {\slideentry {3}{0}{15}{57/57}{}{0}}}
\@writefile{nav}{\headcommand {\beamer@framepages {57}{57}}}
\HyPL@Entry{57<</P(54)>>}
\newlabel{Vh_vs_Rate_of_Decent}{{24}{58}{Vh vs Rate of Decent\relax }{Doc-Start}{}}
\@writefile{snm}{\beamer@slide {Vh_vs_Rate_of_Decent}{58}}
\@writefile{nav}{\headcommand {\slideentry {3}{0}{16}{58/58}{}{0}}}
\@writefile{nav}{\headcommand {\beamer@framepages {58}{58}}}
\@writefile{toc}{\beamer@sectionintoc {4}{Conclusion and Recommendation}{59}{0}{4}}
\@writefile{nav}{\headcommand {\beamer@sectionpages {43}{58}}}
\@writefile{nav}{\headcommand {\beamer@subsectionpages {43}{58}}}
\@writefile{nav}{\headcommand {\sectionentry {4}{Conclusion and Recommendation}{59}{Conclusion and Recommendation}{0}}}
\@writefile{nav}{\headcommand {\slideentry {4}{0}{1}{59/59}{}{0}}}
\@writefile{nav}{\headcommand {\beamer@framepages {59}{59}}}
\HyPL@Entry{59<</P(55)>>}
\@writefile{nav}{\headcommand {\slideentry {4}{0}{2}{60/60}{}{0}}}
\@writefile{nav}{\headcommand {\beamer@framepages {60}{60}}}
\HyPL@Entry{60<</P(56)>>}
\@writefile{nav}{\headcommand {\slideentry {4}{0}{3}{61/61}{}{0}}}
\@writefile{nav}{\headcommand {\beamer@framepages {61}{61}}}
\HyPL@Entry{61<</P(57)>>}
\@writefile{nav}{\headcommand {\slideentry {4}{0}{4}{62/62}{}{0}}}
\@writefile{nav}{\headcommand {\beamer@framepages {62}{62}}}
\@writefile{nav}{\headcommand {\slideentry {4}{0}{5}{63/63}{}{0}}}
\@writefile{nav}{\headcommand {\beamer@framepages {63}{63}}}
\@writefile{nav}{\headcommand {\beamer@partpages {1}{63}}}
\@writefile{nav}{\headcommand {\beamer@subsectionpages {59}{63}}}
\@writefile{nav}{\headcommand {\beamer@sectionpages {59}{63}}}
\@writefile{nav}{\headcommand {\beamer@documentpages {63}}}
\@writefile{nav}{\headcommand {\gdef \inserttotalframenumber {57}}}
