\relax 
\providecommand\hyper@newdestlabel[2]{}
\providecommand\HyperFirstAtBeginDocument{\AtBeginDocument}
\HyperFirstAtBeginDocument{\ifx\hyper@anchor\@undefined
\global\let\oldcontentsline\contentsline
\gdef\contentsline#1#2#3#4{\oldcontentsline{#1}{#2}{#3}}
\global\let\oldnewlabel\newlabel
\gdef\newlabel#1#2{\newlabelxx{#1}#2}
\gdef\newlabelxx#1#2#3#4#5#6{\oldnewlabel{#1}{{#2}{#3}}}
\AtEndDocument{\ifx\hyper@anchor\@undefined
\let\contentsline\oldcontentsline
\let\newlabel\oldnewlabel
\fi}
\fi}
\global\let\hyper@last\relax 
\gdef\HyperFirstAtBeginDocument#1{#1}
\providecommand*\HyPL@Entry[1]{}
\@nameuse{bbl@beforestart}
\abx@aux@refcontext{nty/global//global/global}
\HyPL@Entry{0<</P(0)>>}
\@writefile{toc}{\boolfalse {citerequest}\boolfalse {citetracker}\boolfalse {pagetracker}\boolfalse {backtracker}\relax }
\@writefile{lof}{\boolfalse {citerequest}\boolfalse {citetracker}\boolfalse {pagetracker}\boolfalse {backtracker}\relax }
\@writefile{lot}{\boolfalse {citerequest}\boolfalse {citetracker}\boolfalse {pagetracker}\boolfalse {backtracker}\relax }
\babel@aux{english}{}
\@writefile{nav}{\headcommand {\slideentry {0}{0}{1}{1/1}{}{0}}}
\@writefile{nav}{\headcommand {\beamer@framepages {1}{1}}}
\HyPL@Entry{1<</P(1)>>}
\@writefile{nav}{\headcommand {\slideentry {0}{0}{2}{2/2}{}{0}}}
\@writefile{nav}{\headcommand {\beamer@framepages {2}{2}}}
\@writefile{toc}{\beamer@sectionintoc {1}{Introduction}{3}{0}{1}}
\@writefile{nav}{\headcommand {\beamer@sectionpages {1}{2}}}
\@writefile{nav}{\headcommand {\beamer@subsectionpages {1}{2}}}
\@writefile{nav}{\headcommand {\sectionentry {1}{Introduction}{3}{Introduction}{0}}}
\@writefile{nav}{\headcommand {\slideentry {1}{0}{1}{3/3}{}{0}}}
\@writefile{nav}{\headcommand {\beamer@framepages {3}{3}}}
\HyPL@Entry{3<</P(2)>>}
\@writefile{toc}{\beamer@subsectionintoc {1}{1}{Background}{4}{0}{1}}
\@writefile{nav}{\headcommand {\beamer@subsectionpages {3}{3}}}
\@writefile{nav}{\headcommand {\beamer@subsectionentry {0}{1}{1}{4}{Background}}}
\@writefile{nav}{\headcommand {\slideentry {1}{1}{1}{4/4}{Background}{0}}}
\@writefile{nav}{\headcommand {\beamer@framepages {4}{4}}}
\HyPL@Entry{4<</P(3)>>}
\@writefile{toc}{\beamer@subsectionintoc {1}{2}{Problem Statement}{5}{0}{1}}
\@writefile{nav}{\headcommand {\beamer@subsectionpages {4}{4}}}
\@writefile{nav}{\headcommand {\beamer@subsectionentry {0}{1}{2}{5}{Problem Statement}}}
\@writefile{nav}{\headcommand {\slideentry {1}{2}{1}{5/5}{Problem Statement}{0}}}
\@writefile{nav}{\headcommand {\beamer@framepages {5}{5}}}
\HyPL@Entry{5<</P(4)>>}
\@writefile{nav}{\headcommand {\slideentry {1}{2}{2}{6/6}{Problem Statement}{0}}}
\@writefile{nav}{\headcommand {\beamer@framepages {6}{6}}}
\HyPL@Entry{6<</P(5)>>}
\@writefile{nav}{\headcommand {\slideentry {1}{2}{3}{7/7}{Problem Statement}{0}}}
\@writefile{nav}{\headcommand {\beamer@framepages {7}{7}}}
\HyPL@Entry{7<</P(6)>>}
\@writefile{snm}{\beamer@slide {eq:1}{8}}
\newlabel{eq:1}{{1}{8}{Problem Statement}{Doc-Start}{}}
\@writefile{snm}{\beamer@slide {eq:2}{8}}
\newlabel{eq:2}{{4}{8}{Problem Statement}{Doc-Start}{}}
\@writefile{nav}{\headcommand {\slideentry {1}{2}{4}{8/8}{Problem Statement}{0}}}
\@writefile{nav}{\headcommand {\beamer@framepages {8}{8}}}
\HyPL@Entry{8<</P(7)>>}
\@writefile{snm}{\beamer@slide {eq1}{9}}
\newlabel{eq1}{{5}{9}{Problem Statement}{Doc-Start}{}}
\@writefile{nav}{\headcommand {\slideentry {1}{2}{5}{9/9}{Problem Statement}{0}}}
\@writefile{nav}{\headcommand {\beamer@framepages {9}{9}}}
\HyPL@Entry{9<</P(8)>>}
\@writefile{nav}{\headcommand {\slideentry {1}{2}{6}{10/10}{Problem Statement}{0}}}
\@writefile{nav}{\headcommand {\beamer@framepages {10}{10}}}
\abx@aux@cite{Knuth92}
\abx@aux@segm{0}{0}{Knuth92}
\HyPL@Entry{10<</P(9)>>}
\newlabel{tab:table1}{{1}{11}{Problem Statement}{Doc-Start}{}}
\@writefile{snm}{\beamer@slide {tab:table1}{11}}
\abx@aux@fnpage{1}{11}
\@writefile{nav}{\headcommand {\slideentry {1}{2}{7}{11/11}{Problem Statement}{0}}}
\@writefile{nav}{\headcommand {\beamer@framepages {11}{11}}}
\HyPL@Entry{11<</P(10)>>}
\@writefile{toc}{\beamer@subsectionintoc {1}{3}{Research Objectives}{12}{0}{1}}
\@writefile{nav}{\headcommand {\beamer@subsectionpages {5}{11}}}
\@writefile{nav}{\headcommand {\beamer@subsectionentry {0}{1}{3}{12}{Research Objectives}}}
\@writefile{nav}{\headcommand {\slideentry {1}{3}{1}{12/12}{Research Objectives}{0}}}
\@writefile{nav}{\headcommand {\beamer@framepages {12}{12}}}
\HyPL@Entry{12<</P(11)>>}
\@writefile{toc}{\beamer@subsectionintoc {1}{4}{Research Scope}{13}{0}{1}}
\@writefile{nav}{\headcommand {\beamer@subsectionpages {12}{12}}}
\@writefile{nav}{\headcommand {\beamer@subsectionentry {0}{1}{4}{13}{Research Scope}}}
\@writefile{nav}{\headcommand {\slideentry {1}{4}{1}{13/13}{Research Scope}{0}}}
\@writefile{nav}{\headcommand {\beamer@framepages {13}{13}}}
\@writefile{toc}{\beamer@sectionintoc {2}{Research Methodology}{14}{0}{2}}
\@writefile{nav}{\headcommand {\beamer@sectionpages {3}{13}}}
\@writefile{nav}{\headcommand {\beamer@subsectionpages {13}{13}}}
\@writefile{nav}{\headcommand {\sectionentry {2}{Research Methodology}{14}{Research Methodology}{0}}}
\@writefile{nav}{\headcommand {\slideentry {2}{0}{1}{14/14}{}{0}}}
\@writefile{nav}{\headcommand {\beamer@framepages {14}{14}}}
\HyPL@Entry{14<</P(12)>>}
\@writefile{nav}{\headcommand {\slideentry {2}{0}{2}{15/15}{}{0}}}
\@writefile{nav}{\headcommand {\beamer@framepages {15}{15}}}
\@writefile{toc}{\beamer@sectionintoc {3}{Results and Discussion}{16}{0}{3}}
\@writefile{nav}{\headcommand {\beamer@sectionpages {14}{15}}}
\@writefile{nav}{\headcommand {\beamer@subsectionpages {14}{15}}}
\@writefile{nav}{\headcommand {\sectionentry {3}{Results and Discussion}{16}{Results and Discussion}{0}}}
\@writefile{nav}{\headcommand {\slideentry {3}{0}{1}{16/16}{}{0}}}
\@writefile{nav}{\headcommand {\beamer@framepages {16}{16}}}
\HyPL@Entry{16<</P(13)>>}
\@writefile{nav}{\headcommand {\slideentry {3}{0}{2}{17/17}{}{0}}}
\@writefile{nav}{\headcommand {\beamer@framepages {17}{17}}}
\@writefile{toc}{\beamer@sectionintoc {4}{Conclusions and Recommendations}{18}{0}{4}}
\@writefile{nav}{\headcommand {\beamer@sectionpages {16}{17}}}
\@writefile{nav}{\headcommand {\beamer@subsectionpages {16}{17}}}
\@writefile{nav}{\headcommand {\sectionentry {4}{Conclusions and Recommendations}{18}{Conclusions and Recommendations}{0}}}
\@writefile{nav}{\headcommand {\slideentry {4}{0}{1}{18/18}{}{0}}}
\@writefile{nav}{\headcommand {\beamer@framepages {18}{18}}}
\HyPL@Entry{18<</P(14)>>}
\@writefile{nav}{\headcommand {\slideentry {4}{0}{2}{19/19}{}{0}}}
\@writefile{nav}{\headcommand {\beamer@framepages {19}{19}}}
\HyPL@Entry{19<</P(15)>>}
\@writefile{nav}{\headcommand {\beamer@sectionpages {18}{19}}}
\@writefile{nav}{\headcommand {\beamer@subsectionpages {18}{19}}}
\@writefile{nav}{\headcommand {\sectionentry {5}{References}{20}{References}{0}}}
\abx@aux@page{2}{20}
\@writefile{nav}{\headcommand {\slideentry {5}{0}{0}{20/20}{}{0}}}
\@writefile{nav}{\headcommand {\beamer@framepages {20}{20}}}
\@writefile{nav}{\headcommand {\beamer@partpages {1}{20}}}
\@writefile{nav}{\headcommand {\beamer@subsectionpages {18}{20}}}
\@writefile{nav}{\headcommand {\beamer@sectionpages {18}{20}}}
\@writefile{nav}{\headcommand {\beamer@documentpages {20}}}
\@writefile{nav}{\headcommand {\gdef \inserttotalframenumber {15}}}
\abx@aux@refcontextdefaultsdone
\abx@aux@defaultrefcontext{0}{Knuth92}{nty/global//global/global}
